…
    ## Rows: 822 Columns: 9
    ## ── Column specification ────────────────────────────────────────────────────────
    ## Delimiter: ","
    ## dbl  (8): prez_gop, gov_gop, sen_gop, rep_gop, prez_dem, gov_dem, sen_dem, r...
    ## date (1): mon
    ## 
    ## ℹ Use `spec()` to retrieve the full column specification for this data.
    ## ℹ Specify the column types or set `show_col_types = FALSE` to quiet this message.

``` r
polsmonth_data
```

    ## # A tibble: 822 × 9
    ##    year  month president gov_gop sen_gop rep_gop gov_dem sen_dem rep_dem
    ##    <chr> <chr> <chr>       <dbl>   <dbl>   <dbl>   <dbl>   <dbl>   <dbl>
    ##  1 1947  Jan   dem            23      51     253      23      45     198
    ##  2 1947  Feb   dem            23      51     253      23      45     198
    ##  3 1947  Mar   dem            23      51     253      23      45     198
    ##  4 1947  Apr   dem            23      51     253      23      45     198
    ##  5 1947  May   dem            23      51     253      23      45     198
    ##  6 1947  Jun   dem            23      51     253      23      45     198
    ##  7 1947  Jul   dem            23      51     253      23      45     198
    ##  8 1947  Aug   dem            23      51     253      23      45     198
    ##  9 1947  Sep   dem            23      51     253      23      45     198
    ## 10 1947  Oct   dem            23      51     253      23      45     198
    ## # ℹ 812 more rows
…
    ## Rows: 787 Columns: 2
    ## ── Column specification ────────────────────────────────────────────────────────
    ## Delimiter: ","
    ## chr (1): date
    ## dbl (1): close
    ## 
    ## ℹ Use `spec()` to retrieve the full column specification for this data.
    ## ℹ Specify the column types or set `show_col_types = FALSE` to quiet this message.

``` r
snp_data
```

    ## # A tibble: 787 × 3
    ##    year  month close
    ##    <chr> <chr> <dbl>
    ##  1 1950  Apr    18.0
    ##  2 1950  Aug    18.4
    ##  3 1950  Dec    20.4
    ##  4 1950  Feb    17.2
    ##  5 1950  Jan    17.0
    ##  6 1950  Jul    17.8
    ##  7 1950  Jun    17.7
    ##  8 1950  Mar    17.3
    ##  9 1950  May    18.8
    ## 10 1950  Nov    19.5
    ## # ℹ 777 more rows
…
    ## Rows: 68 Columns: 13
    ## ── Column specification ────────────────────────────────────────────────────────
    ## Delimiter: ","
    ## dbl (13): Year, Jan, Feb, Mar, Apr, May, Jun, Jul, Aug, Sep, Oct, Nov, Dec
    ## 
    ## ℹ Use `spec()` to retrieve the full column specification for this data.
    ## ℹ Specify the column types or set `show_col_types = FALSE` to quiet this message.

``` r
unemployment_data
```

    ## # A tibble: 816 × 3
    ##    year  month unemploy
    ##    <chr> <chr>    <dbl>
    ##  1 1948  Jan        3.4
    ##  2 1948  Feb        3.8
    ##  3 1948  Mar        4  
    ##  4 1948  Apr        3.9
    ##  5 1948  May        3.5
    ##  6 1948  Jun        3.6
    ##  7 1948  Jul        3.6
    ##  8 1948  Aug        3.9
    ##  9 1948  Sep        3.8
    ## 10 1948  Oct        3.7
    ## # ℹ 806 more rows
…
    ## Joining with `by = join_by(year, month)`

``` r
binddata=inner_join(firstdata, unemployment_data)|>
  relocate(year, month, president, close, unemploy,everything())#merge unemployment into the result.
```

    ## Joining with `by = join_by(year, month)`

``` r
binddata
```

    ## # A tibble: 786 × 11
    ##    year  month president close unemploy gov_gop sen_gop rep_gop gov_dem sen_dem
    ##    <chr> <chr> <chr>     <dbl>    <dbl>   <dbl>   <dbl>   <dbl>   <dbl>   <dbl>
    ##  1 1950  Jan   dem        17.0      6.5      18      44     177      29      57
    ##  2 1950  Feb   dem        17.2      6.4      18      44     177      29      57
    ##  3 1950  Mar   dem        17.3      6.3      18      44     177      29      57
    ##  4 1950  Apr   dem        18.0      5.8      18      44     177      29      57
    ##  5 1950  May   dem        18.8      5.5      18      44     177      29      57
    ##  6 1950  Jun   dem        17.7      5.4      18      44     177      29      57
    ##  7 1950  Jul   dem        17.8      5        18      44     177      29      57
    ##  8 1950  Aug   dem        18.4      4.5      18      44     177      29      57
    ##  9 1950  Sep   dem        19.5      4.4      18      44     177      29      57
    ## 10 1950  Oct   dem        19.5      4.2      18      44     177      29      57
    ## # ℹ 776 more rows
    ## # ℹ 1 more variable: rep_dem <dbl>
…
    ## New names:
    ## • `` -> `...15`
    ## • `` -> `...16`

``` r
mrtrash_data
```

    ## # A tibble: 547 × 15
    ##    Name  dumpster year  month day   weight_tons homes_powered volume_cubic_yards
    ##    <chr>    <dbl> <chr> <ord> <chr>       <dbl>         <dbl>              <dbl>
    ##  1 Mrtr…        1 2014  May   16           4.31            72                 18
    ##  2 Mrtr…        2 2014  May   16           2.74            46                 13
    ##  3 Mrtr…        3 2014  May   16           3.45            58                 15
    ##  4 Mrtr…        4 2014  May   17           3.1             52                 15
    ##  5 Mrtr…        5 2014  May   17           4.06            68                 18
    ##  6 Mrtr…        6 2014  May   20           2.71            45                 13
    ##  7 Mrtr…        7 2014  May   21           1.91            32                  8
    ##  8 Mrtr…        8 2014  May   28           3.7             62                 16
    ##  9 Mrtr…        9 2014  Jun   05           2.52            42                 14
    ## 10 Mrtr…       10 2014  Jun   11           3.76            63                 18
    ## # ℹ 537 more rows
    ## # ℹ 7 more variables: plastic_bottles <dbl>, polystyrene <dbl>,
    ## #   cigarette_butts <dbl>, glass_bottles <dbl>, grocery_bags <dbl>,
    ## #   chip_bags <dbl>, sports_balls <dbl>
…
``` r
protrash_data
```

    ## # A tibble: 94 × 14
    ##    Name  dumpster year  month day   weight_tons homes_powered volume_cubic_yards
    ##    <chr>    <dbl> <chr> <ord> <chr>       <dbl>         <dbl>              <dbl>
    ##  1 Prof…        1 2017  Jan   02           1.79            30                 15
    ##  2 Prof…        2 2017  Jan   30           1.58            26                 15
    ##  3 Prof…        3 2017  Feb   26           2.32            39                 18
    ##  4 Prof…        4 2017  Feb   26           3.72            62                 15
    ##  5 Prof…        5 2017  Feb   28           1.45            24                 15
    ##  6 Prof…        6 2017  Mar   30           1.71            28                 15
    ##  7 Prof…        7 2017  Apr   01           1.82            30                 15
    ##  8 Prof…        8 2017  Apr   20           2.37            40                 15
    ##  9 Prof…        9 2017  May   10           2.64            44                 15
    ## 10 Prof…       10 2017  May   26           2.78            46                 15
    ## # ℹ 84 more rows
    ## # ℹ 6 more variables: plastic_bottles <dbl>, polystyrene <dbl>,
    ## #   cigarette_butts <dbl>, glass_bottles <dbl>, grocery_bags <dbl>,
    ## #   chip_bags <dbl>
…
``` r
gwytrash_data
```

    ## # A tibble: 106 × 12
    ##    Name  dumpster year  month day   weight_tons homes_powered volume_cubic_yards
    ##    <chr>    <dbl> <chr> <ord> <chr>       <dbl>         <dbl>              <dbl>
    ##  1 Gwyn…        1 2021  Jul   03           0.93            16                 15
    ##  2 Gwyn…        2 2021  Jul   07           2.26            38                 15
    ##  3 Gwyn…        3 2021  Jul   07           1.62            27                 15
    ##  4 Gwyn…        4 2021  Jul   16           1.76            29                 15
    ##  5 Gwyn…        5 2021  Jul   30           1.53            26                 15
    ##  6 Gwyn…        6 2021  Aug   11           2.06            34                 15
    ##  7 Gwyn…        7 2021  Aug   14           1.9             32                 15
    ##  8 Gwyn…        8 2021  Aug   16           2.16            36                 15
    ##  9 Gwyn…        9 2021  Aug   16           2.6             43                 15
    ## 10 Gwyn…       10 2021  Aug   17           3.21            54                 15
    ## # ℹ 96 more rows
    ## # ℹ 4 more variables: plastic_bottles <dbl>, polystyrene <dbl>,
    ## #   cigarette_butts <dbl>, plastic_bags <dbl>
…
``` r
trashmerge = full_join(mrpromerge,gwytrash_data)# combine the three data in one data frame.join_by(Name, dumpster, year, month, day,weight_tons, homes_powered, volume_cubic_yards, plastic_bottles,polystyrene, cigarette_butts)`
```

    ## Joining with `by = join_by(Name, dumpster, year, month, day, weight_tons,
    ## homes_powered, volume_cubic_yards, plastic_bottles, polystyrene,
    ## cigarette_butts)`

``` r
trashmerge
```

    ## # A tibble: 747 × 16
    ##    Name  dumpster year  month day   weight_tons homes_powered volume_cubic_yards
    ##    <chr>    <dbl> <chr> <ord> <chr>       <dbl>         <dbl>              <dbl>
    ##  1 Mrtr…        1 2014  May   16           4.31            72                 18
    ##  2 Mrtr…        2 2014  May   16           2.74            46                 13
    ##  3 Mrtr…        3 2014  May   16           3.45            58                 15
    ##  4 Mrtr…        4 2014  May   17           3.1             52                 15
    ##  5 Mrtr…        5 2014  May   17           4.06            68                 18
    ##  6 Mrtr…        6 2014  May   20           2.71            45                 13
    ##  7 Mrtr…        7 2014  May   21           1.91            32                  8
    ##  8 Mrtr…        8 2014  May   28           3.7             62                 16
    ##  9 Mrtr…        9 2014  Jun   05           2.52            42                 14
    ## 10 Mrtr…       10 2014  Jun   11           3.76            63                 18
    ## # ℹ 737 more rows
    ## # ℹ 8 more variables: plastic_bottles <dbl>, polystyrene <dbl>,
    ## #   cigarette_butts <dbl>, glass_bottles <dbl>, grocery_bags <dbl>,
    ## #   chip_bags <dbl>, sports_balls <dbl>, plastic_bags <dbl>
…
    ## Rows: 483 Columns: 6
    ## ── Column specification ────────────────────────────────────────────────────────
    ## Delimiter: ","
    ## chr (1): Age at onset
    ## dbl (5): ID, Current Age, Sex, Education, apoe4
    ## 
    ## ℹ Use `spec()` to retrieve the full column specification for this data.
    ## ℹ Specify the column types or set `show_col_types = FALSE` to quiet this message.

``` r
baseline_data
```

    ## # A tibble: 479 × 6
    ##       id current_age sex    education apoe4      age_at_onset
    ##    <dbl>       <dbl> <chr>      <dbl> <chr>             <dbl>
    ##  1     1        63.1 Female        16 Carrier            NA  
    ##  2     2        65.6 Female        20 Carrier            NA  
    ##  3     3        62.5 Male          16 Carrier            66.8
    ##  4     4        69.8 Female        16 Noncarrier         NA  
    ##  5     5        66   Male          16 Noncarrier         68.7
    ##  6     6        62.5 Male          16 Noncarrier         NA  
    ##  7     7        66.5 Male          18 Noncarrier         74  
    ##  8     8        67.2 Female        18 Noncarrier         NA  
    ##  9     9        66.7 Female        16 Noncarrier         NA  
    ## 10    10        64.1 Female        18 Noncarrier         NA  
    ## # ℹ 469 more rows
…
    ## Rows: 483 Columns: 6
    ## ── Column specification ────────────────────────────────────────────────────────
    ## Delimiter: ","
    ## chr (1): Age at onset
    ## dbl (5): ID, Current Age, Sex, Education, apoe4
    ## 
    ## ℹ Use `spec()` to retrieve the full column specification for this data.
    ## ℹ Specify the column types or set `show_col_types = FALSE` to quiet this message.

``` r
rawbaseline_data
```

    ## # A tibble: 483 × 6
    ##       id current_age   sex education apoe4 age_at_onset
    ##    <dbl>       <dbl> <dbl>     <dbl> <dbl> <chr>       
    ##  1     1        63.1     0        16     1 .           
    ##  2     2        65.6     0        20     1 .           
    ##  3     3        62.5     1        16     1 66.8        
    ##  4     4        69.8     0        16     0 .           
    ##  5     5        66       1        16     0 68.7        
    ##  6     6        62.5     1        16     0 .           
    ##  7     7        66.5     1        18     0 74          
    ##  8     8        67.2     0        18     0 .           
    ##  9     9        66.7     0        16     0 .           
    ## 10    10        64.1     0        18     0 .           
    ## # ℹ 473 more rows
…
    ## Rows: 487 Columns: 6
    ## ── Column specification ────────────────────────────────────────────────────────
    ## Delimiter: ","
    ## chr (5): Baseline, Time 2, Time 4, Time 6, Time 8
    ## dbl (1): Study ID
    ## 
    ## ℹ Use `spec()` to retrieve the full column specification for this data.
    ## ℹ Specify the column types or set `show_col_types = FALSE` to quiet this message.

``` r
amyloid_data
```

    ## # A tibble: 487 × 6
    ##       id baseline    time_2      time_4      time_6      time_8     
    ##    <dbl> <chr>       <chr>       <chr>       <chr>       <chr>      
    ##  1     1 0.1105487   <NA>        0.109325197 0.104756131 0.107257697
    ##  2     2 0.107481183 0.109157373 0.109457839 0.105729713 0.10661845 
    ##  3     3 0.106087034 0.108744509 0.106065035 <NA>        0.106152357
    ##  4     4 0.109251358 0.108699686 0.110540386 0.107476797 0.111212209
    ##  5     5 0.107950408 0.112273883 0.115139677 0.106606054 0.106052066
    ##  6     6 0.112426974 0.112853415 0.11143945  0.110279277 0.114982747
    ##  7     7 0.112246391 <NA>        0.104251905 0.112485583 0.112055612
    ##  8     8 0.109563372 0.109470828 <NA>        0.108742168 0.110268552
    ##  9     9 0.112101884 0.109781199 0.108832888 <NA>        <NA>       
    ## 10    10 0.1116094   0.111592149 <NA>        <NA>        0.110051296
    ## # ℹ 477 more rows
…
    ## Warning: There was 1 warning in `mutate()`.
    ## ℹ In argument: `time_8 = as.numeric(time_8)`.
    ## Caused by warning:
    ## ! NAs introduced by coercion

``` r
  #change the variables: β42/40 ratio from chr to num so that esier to observation.
```

``` r
admerge
```

    ## # A tibble: 471 × 11
    ##       id current_age sex    education apoe4  age_at_onset baseline time_2 time_4
    ##    <dbl>       <dbl> <fct>      <dbl> <fct>         <dbl>    <dbl>  <dbl>  <dbl>
    ##  1     1        63.1 Female        16 Carri…         NA      0.111 NA      0.109
    ##  2     2        65.6 Female        20 Carri…         NA      0.107  0.109  0.109
    ##  3     3        62.5 Male          16 Carri…         66.8    0.106  0.109  0.106
    ##  4     4        69.8 Female        16 Nonca…         NA      0.109  0.109  0.111
    ##  5     5        66   Male          16 Nonca…         68.7    0.108  0.112  0.115
    ##  6     6        62.5 Male          16 Nonca…         NA      0.112  0.113  0.111
    ##  7     7        66.5 Male          18 Nonca…         74      0.112 NA      0.104
    ##  8     8        67.2 Female        18 Nonca…         NA      0.110  0.109 NA    
    ##  9     9        66.7 Female        16 Nonca…         NA      0.112  0.110  0.109
    ## 10    10        64.1 Female        18 Nonca…         NA      0.112  0.112 NA    
    ## # ℹ 461 more rows
    ## # ℹ 2 more variables: time_6 <dbl>, time_8 <dbl>
…
